…
instacart %>% summarize(n_aisles = n_distinct(aisle_id))
```

    ## # A tibble: 1 × 1
    ##   n_aisles
    ##      <int>
    ## 1      134

``` r
instacart %>% select(aisle_id, product_id, aisle) %>% 
  group_by(aisle, aisle_id) %>% count() %>% 
  arrange(desc(n)) 
```

    ## # A tibble: 134 × 3
    ## # Groups:   aisle, aisle_id [134]
    ##    aisle                         aisle_id      n
    ##    <chr>                            <int>  <int>
    ##  1 fresh vegetables                    83 150609
    ##  2 fresh fruits                        24 150473
    ##  3 packaged vegetables fruits         123  78493
    ##  4 yogurt                             120  55240
    ##  5 packaged cheese                     21  41699
    ##  6 water seltzer sparkling water      115  36617
    ##  7 milk                                84  32644
    ##  8 chips pretzels                     107  31269
    ##  9 soy lactosefree                     91  26240
    ## 10 bread                              112  23635
    ## # … with 124 more rows
…
